{
  "database": {
    "rules": "database.rules.json"
  },
  "hosting": {
    "public": "public",
    "ignore": [
      "firebase.json",
      "**/.*",
      "**/node_modules/**"
    ],

    "rewrites": [
      {
        "source": "**",
        "function": "app"
      }
    ]
  },
  "storage": {
    "rules": "storage.rules"
  }
}
